Lab_3 Quartus/simulation/qsim/Lab_3.msim.vcd
$comment
	File created using the following command:
		vcd file Lab_3.msim.vcd -direction
$end
$date
	Sun May 16 14:43:32 2021
$end
$version
	ModelSim Version 10.5b
$end
$timescale
	1ps
$end

$scope module Tb__l3_vlg_vec_tst $end
$var reg 1 ! clock $end
$var wire 1 " data_in [2] $end
$var wire 1 # data_in [1] $end
$var wire 1 $ data_in [0] $end
$var wire 1 % data_out [2] $end
$var wire 1 & data_out [1] $end
$var wire 1 ' data_out [0] $end

$scope module i1 $end
$var wire 1 ( gnd $end
$var wire 1 ) vcc $end
$var wire 1 * unknown $end
$var tri1 1 + devclrn $end
$var tri1 1 , devpor $end
$var tri1 1 - devoe $end
$var wire 1 . data_out[0]~output_o $end
$var wire 1 / data_out[1]~output_o $end
$var wire 1 0 data_out[2]~output_o $end
$var wire 1 1 data_in[0]~output_o $end
$var wire 1 2 data_in[1]~output_o $end
$var wire 1 3 data_in[2]~output_o $end
$var wire 1 4 clock~input_o $end
$var wire 1 5 clock~inputclkctrl_outclk $end
$var wire 1 6 cnt|LPM_COUNTER_component|auto_generated|counter_comb_bita0~combout $end
$var wire 1 7 cnt|LPM_COUNTER_component|auto_generated|counter_comb_bita0~COUT $end
$var wire 1 8 cnt|LPM_COUNTER_component|auto_generated|counter_comb_bita1~combout $end
$var wire 1 9 cnt|LPM_COUNTER_component|auto_generated|counter_comb_bita1~COUT $end
$var wire 1 : cnt|LPM_COUNTER_component|auto_generated|counter_comb_bita2~combout $end
$var wire 1 ; m2|mod2~combout $end
$var wire 1 < m2|mod3~0_combout $end
$var wire 1 = cnt|LPM_COUNTER_component|auto_generated|counter_reg_bit [2] $end
$var wire 1 > cnt|LPM_COUNTER_component|auto_generated|counter_reg_bit [1] $end
$var wire 1 ? cnt|LPM_COUNTER_component|auto_generated|counter_reg_bit [0] $end
$upscope $end
$upscope $end
$enddefinitions $end
#0
$dumpvars
0!
0$
0#
0"
1'
1&
0%
0(
1)
x*
1+
1,
1-
1.
1/
00
01
02
03
04
05
16
07
08
19
0:
1;
1<
0?
0>
0=
$end
#5000
1!
14
15
1?
10
11
17
1$
1%
0<
06
0/
0&
18
#10000
0!
04
05
#15000
1!
14
15
1>
0?
00
01
12
09
07
1#
0$
0%
0;
08
16
0.
19
0'
1:
18
0:
#20000
0!
04
05
#25000
1!
14
15
1?
10
11
17
1$
1%
1<
06
1/
09
1&
08
1:
#30000
0!
04
05
#35000
1!
14
15
1=
0>
0?
00
01
02
13
19
07
1"
0#
0$
0%
0<
0:
18
16
0/
0&
1:
08
#40000
0!
04
05
#45000
1!
14
15
1?
10
11
17
1$
1%
06
18
#50000
0!
04
05
#55000
1!
14
15
1>
0?
00
01
12
09
07
1#
0$
0%
1;
08
16
1.
19
1'
0:
18
1:
#60000
0!
04
05
#65000
1!
14
15
1?
10
11
17
1$
1%
1<
0;
06
0.
1/
09
1&
0'
08
0:
#70000
0!
04
05
#75000
1!
14
15
0=
0>
0?
00
01
02
03
19
07
0"
0#
0$
0%
1;
1:
18
16
1.
1'
0:
08
#80000
0!
04
05
#85000
1!
14
15
1?
10
11
17
1$
1%
0<
06
0/
0&
18
#90000
0!
04
05
#95000
1!
14
15
1>
0?
00
01
12
09
07
1#
0$
0%
0;
08
16
0.
19
0'
1:
18
0:
#100000
0!
04
05
#105000
1!
14
15
1?
10
11
17
1$
1%
1<
06
1/
09
1&
08
1:
#110000
0!
04
05
#115000
1!
14
15
1=
0>
0?
00
01
02
13
19
07
1"
0#
0$
0%
0<
0:
18
16
0/
0&
1:
08
#120000
0!
04
05
#125000
1!
14
15
1?
10
11
17
1$
1%
06
18
#130000
0!
04
05
#135000
1!
14
15
1>
0?
00
01
12
09
07
1#
0$
0%
1;
08
16
1.
19
1'
0:
18
1:
#140000
0!
04
05
#145000
1!
14
15
1?
10
11
17
1$
1%
1<
0;
06
0.
1/
09
1&
0'
08
0:
#150000
0!
04
05
#155000
1!
14
15
0=
0>
0?
00
01
02
03
19
07
0"
0#
0$
0%
1;
1:
18
16
1.
1'
0:
08
#160000
0!
04
05
#165000
1!
14
15
1?
10
11
17
1$
1%
0<
06
0/
0&
18
#170000
0!
04
05
#175000
1!
14
15
1>
0?
00
01
12
09
07
1#
0$
0%
0;
08
16
0.
19
0'
1:
18
0:
#180000
0!
04
05
#185000
1!
14
15
1?
10
11
17
1$
1%
1<
06
1/
09
1&
08
1:
#190000
0!
04
05
#195000
1!
14
15
1=
0>
0?
00
01
02
13
19
07
1"
0#
0$
0%
0<
0:
18
16
0/
0&
1:
08
#200000
0!
04
05
#205000
1!
14
15
1?
10
11
17
1$
1%
06
18
#210000
0!
04
05
#215000
1!
14
15
1>
0?
00
01
12
09
07
1#
0$
0%
1;
08
16
1.
19
1'
0:
18
1:
#220000
0!
04
05
#225000
1!
14
15
1?
10
11
17
1$
1%
1<
0;
06
0.
1/
09
1&
0'
08
0:
#230000
0!
04
05
#235000
1!
14
15
0=
0>
0?
00
01
02
03
19
07
0"
0#
0$
0%
1;
1:
18
16
1.
1'
0:
08
#240000
0!
04
05
#245000
1!
14
15
1?
10
11
17
1$
1%
0<
06
0/
0&
18
#250000
0!
04
05
#255000
1!
14
15
1>
0?
00
01
12
09
07
1#
0$
0%
0;
08
16
0.
19
0'
1:
18
0:
#260000
0!
04
05
#265000
1!
14
15
1?
10
11
17
1$
1%
1<
06
1/
09
1&
08
1:
#270000
0!
04
05
#275000
1!
14
15
1=
0>
0?
00
01
02
13
19
07
1"
0#
0$
0%
0<
0:
18
16
0/
0&
1:
08
#280000
0!
04
05
#285000
1!
14
15
1?
10
11
17
1$
1%
06
18
#290000
0!
04
05
#295000
1!
14
15
1>
0?
00
01
12
09
07
1#
0$
0%
1;
08
16
1.
19
1'
0:
18
1:
#300000
0!
04
05
#305000
1!
14
15
1?
10
11
17
1$
1%
1<
0;
06
0.
1/
09
1&
0'
08
0:
#310000
0!
04
05
#315000
1!
14
15
0=
0>
0?
00
01
02
03
19
07
0"
0#
0$
0%
1;
1:
18
16
1.
1'
0:
08
#320000
0!
04
05
#325000
1!
14
15
1?
10
11
17
1$
1%
0<
06
0/
0&
18
#330000
0!
04
05
#335000
1!
14
15
1>
0?
00
01
12
09
07
1#
0$
0%
0;
08
16
0.
19
0'
1:
18
0:
#340000
0!
04
05
#345000
1!
14
15
1?
10
11
17
1$
1%
1<
06
1/
09
1&
08
1:
#350000
0!
04
05
#355000
1!
14
15
1=
0>
0?
00
01
02
13
19
07
1"
0#
0$
0%
0<
0:
18
16
0/
0&
1:
08
#360000
0!
04
05
#365000
1!
14
15
1?
10
11
17
1$
1%
06
18
#370000
0!
04
05
#375000
1!
14
15
1>
0?
00
01
12
09
07
1#
0$
0%
1;
08
16
1.
19
1'
0:
18
1:
#380000
0!
04
05
#385000
1!
14
15
1?
10
11
17
1$
1%
1<
0;
06
0.
1/
09
1&
0'
08
0:
#390000
0!
04
05
#395000
1!
14
15
0=
0>
0?
00
01
02
03
19
07
0"
0#
0$
0%
1;
1:
18
16
1.
1'
0:
08
#400000
0!
04
05
#405000
1!
14
15
1?
10
11
17
1$
1%
0<
06
0/
0&
18
#410000
0!
04
05
#415000
1!
14
15
1>
0?
00
01
12
09
07
1#
0$
0%
0;
08
16
0.
19
0'
1:
18
0:
#420000
0!
04
05
#425000
1!
14
15
1?
10
11
17
1$
1%
1<
06
1/
09
1&
08
1:
#430000
0!
04
05
#435000
1!
14
15
1=
0>
0?
00
01
02
13
19
07
1"
0#
0$
0%
0<
0:
18
16
0/
0&
1:
08
#440000
0!
04
05
#445000
1!
14
15
1?
10
11
17
1$
1%
06
18
#450000
0!
04
05
#455000
1!
14
15
1>
0?
00
01
12
09
07
1#
0$
0%
1;
08
16
1.
19
1'
0:
18
1:
#460000
0!
04
05
#465000
1!
14
15
1?
10
11
17
1$
1%
1<
0;
06
0.
1/
09
1&
0'
08
0:
#470000
0!
04
05
#475000
1!
14
15
0=
0>
0?
00
01
02
03
19
07
0"
0#
0$
0%
1;
1:
18
16
1.
1'
0:
08
#480000
0!
04
05
#485000
1!
14
15
1?
10
11
17
1$
1%
0<
06
0/
0&
18
#490000
0!
04
05
#495000
1!
14
15
1>
0?
00
01
12
09
07
1#
0$
0%
0;
08
16
0.
19
0'
1:
18
0:
#500000
0!
04
05
#505000
1!
14
15
1?
10
11
17
1$
1%
1<
06
1/
09
1&
08
1:
#510000
0!
04
05
#515000
1!
14
15
1=
0>
0?
00
01
02
13
19
07
1"
0#
0$
0%
0<
0:
18
16
0/
0&
1:
08
#520000
0!
04
05
#525000
1!
14
15
1?
10
11
17
1$
1%
06
18
#530000
0!
04
05
#535000
1!
14
15
1>
0?
00
01
12
09
07
1#
0$
0%
1;
08
16
1.
19
1'
0:
18
1:
#540000
0!
04
05
#545000
1!
14
15
1?
10
11
17
1$
1%
1<
0;
06
0.
1/
09
1&
0'
08
0:
#550000
0!
04
05
#555000
1!
14
15
0=
0>
0?
00
01
02
03
19
07
0"
0#
0$
0%
1;
1:
18
16
1.
1'
0:
08
#560000
0!
04
05
#565000
1!
14
15
1?
10
11
17
1$
1%
0<
06
0/
0&
18
#570000
0!
04
05
#575000
1!
14
15
1>
0?
00
01
12
09
07
1#
0$
0%
0;
08
16
0.
19
0'
1:
18
0:
#580000
0!
04
05
#585000
1!
14
15
1?
10
11
17
1$
1%
1<
06
1/
09
1&
08
1:
#590000
0!
04
05
#595000
1!
14
15
1=
0>
0?
00
01
02
13
19
07
1"
0#
0$
0%
0<
0:
18
16
0/
0&
1:
08
#600000
0!
04
05
#605000
1!
14
15
1?
10
11
17
1$
1%
06
18
#610000
0!
04
05
#615000
1!
14
15
1>
0?
00
01
12
09
07
1#
0$
0%
1;
08
16
1.
19
1'
0:
18
1:
#620000
0!
04
05
#625000
1!
14
15
1?
10
11
17
1$
1%
1<
0;
06
0.
1/
09
1&
0'
08
0:
#630000
0!
04
05
#635000
1!
14
15
0=
0>
0?
00
01
02
03
19
07
0"
0#
0$
0%
1;
1:
18
16
1.
1'
0:
08
#640000
0!
04
05
#645000
1!
14
15
1?
10
11
17
1$
1%
0<
06
0/
0&
18
#650000
0!
04
05
#655000
1!
14
15
1>
0?
00
01
12
09
07
1#
0$
0%
0;
08
16
0.
19
0'
1:
18
0:
#660000
0!
04
05
#665000
1!
14
15
1?
10
11
17
1$
1%
1<
06
1/
09
1&
08
1:
#670000
0!
04
05
#675000
1!
14
15
1=
0>
0?
00
01
02
13
19
07
1"
0#
0$
0%
0<
0:
18
16
0/
0&
1:
08
#680000
0!
04
05
#685000
1!
14
15
1?
10
11
17
1$
1%
06
18
#690000
0!
04
05
#695000
1!
14
15
1>
0?
00
01
12
09
07
1#
0$
0%
1;
08
16
1.
19
1'
0:
18
1:
#700000
0!
04
05
#705000
1!
14
15
1?
10
11
17
1$
1%
1<
0;
06
0.
1/
09
1&
0'
08
0:
#710000
0!
04
05
#715000
1!
14
15
0=
0>
0?
00
01
02
03
19
07
0"
0#
0$
0%
1;
1:
18
16
1.
1'
0:
08
#720000
0!
04
05
#725000
1!
14
15
1?
10
11
17
1$
1%
0<
06
0/
0&
18
#730000
0!
04
05
#735000
1!
14
15
1>
0?
00
01
12
09
07
1#
0$
0%
0;
08
16
0.
19
0'
1:
18
0:
#740000
0!
04
05
#745000
1!
14
15
1?
10
11
17
1$
1%
1<
06
1/
09
1&
08
1:
#750000
0!
04
05
#755000
1!
14
15
1=
0>
0?
00
01
02
13
19
07
1"
0#
0$
0%
0<
0:
18
16
0/
0&
1:
08
#760000
0!
04
05
#765000
1!
14
15
1?
10
11
17
1$
1%
06
18
#770000
0!
04
05
#775000
1!
14
15
1>
0?
00
01
12
09
07
1#
0$
0%
1;
08
16
1.
19
1'
0:
18
1:
#780000
0!
04
05
#785000
1!
14
15
1?
10
11
17
1$
1%
1<
0;
06
0.
1/
09
1&
0'
08
0:
#790000
0!
04
05
#795000
1!
14
15
0=
0>
0?
00
01
02
03
19
07
0"
0#
0$
0%
1;
1:
18
16
1.
1'
0:
08
#800000
0!
04
05
#805000
1!
14
15
1?
10
11
17
1$
1%
0<
06
0/
0&
18
#810000
0!
04
05
#815000
1!
14
15
1>
0?
00
01
12
09
07
1#
0$
0%
0;
08
16
0.
19
0'
1:
18
0:
#820000
0!
04
05
#825000
1!
14
15
1?
10
11
17
1$
1%
1<
06
1/
09
1&
08
1:
#830000
0!
04
05
#835000
1!
14
15
1=
0>
0?
00
01
02
13
19
07
1"
0#
0$
0%
0<
0:
18
16
0/
0&
1:
08
#840000
0!
04
05
#845000
1!
14
15
1?
10
11
17
1$
1%
06
18
#850000
0!
04
05
#855000
1!
14
15
1>
0?
00
01
12
09
07
1#
0$
0%
1;
08
16
1.
19
1'
0:
18
1:
#860000
0!
04
05
#865000
1!
14
15
1?
10
11
17
1$
1%
1<
0;
06
0.
1/
09
1&
0'
08
0:
#870000
0!
04
05
#875000
1!
14
15
0=
0>
0?
00
01
02
03
19
07
0"
0#
0$
0%
1;
1:
18
16
1.
1'
0:
08
#880000
0!
04
05
#885000
1!
14
15
1?
10
11
17
1$
1%
0<
06
0/
0&
18
#890000
0!
04
05
#895000
1!
14
15
1>
0?
00
01
12
09
07
1#
0$
0%
0;
08
16
0.
19
0'
1:
18
0:
#900000
0!
04
05
#905000
1!
14
15
1?
10
11
17
1$
1%
1<
06
1/
09
1&
08
1:
#910000
0!
04
05
#915000
1!
14
15
1=
0>
0?
00
01
02
13
19
07
1"
0#
0$
0%
0<
0:
18
16
0/
0&
1:
08
#920000
0!
04
05
#925000
1!
14
15
1?
10
11
17
1$
1%
06
18
#930000
0!
04
05
#935000
1!
14
15
1>
0?
00
01
12
09
07
1#
0$
0%
1;
08
16
1.
19
1'
0:
18
1:
#940000
0!
04
05
#945000
1!
14
15
1?
10
11
17
1$
1%
1<
0;
06
0.
1/
09
1&
0'
08
0:
#950000
0!
04
05
#955000
1!
14
15
0=
0>
0?
00
01
02
03
19
07
0"
0#
0$
0%
1;
1:
18
16
1.
1'
0:
08
#960000
0!
04
05
#965000
1!
14
15
1?
10
11
17
1$
1%
0<
06
0/
0&
18
#970000
0!
04
05
#975000
1!
14
15
1>
0?
00
01
12
09
07
1#
0$
0%
0;
08
16
0.
19
0'
1:
18
0:
#980000
0!
04
05
#985000
1!
14
15
1?
10
11
17
1$
1%
1<
06
1/
09
1&
08
1:
#990000
0!
04
05
#995000
1!
14
15
1=
0>
0?
00
01
02
13
19
07
1"
0#
0$
0%
0<
0:
18
16
0/
0&
1:
08
