Lab_5 Quartus/simulation/qsim/Lab_5.msim.vcd
$comment
	File created using the following command:
		vcd file Lab_5.msim.vcd -direction
$end
$date
	Sun May 16 17:03:31 2021
$end
$version
	ModelSim Version 10.5b
$end
$timescale
	1ps
$end

$scope module struct_l6_vlg_vec_tst $end
$var reg 1 ! clock $end
$var reg 8 " in_data [7:0] $end
$var reg 1 # reset $end
$var reg 1 $ start $end
$var wire 1 % ready $end
$var wire 1 & result [7] $end
$var wire 1 ' result [6] $end
$var wire 1 ( result [5] $end
$var wire 1 ) result [4] $end
$var wire 1 * result [3] $end
$var wire 1 + result [2] $end
$var wire 1 , result [1] $end
$var wire 1 - result [0] $end

$scope module i1 $end
$var wire 1 . gnd $end
$var wire 1 / vcc $end
$var wire 1 0 unknown $end
$var tri1 1 1 devclrn $end
$var tri1 1 2 devpor $end
$var tri1 1 3 devoe $end
$var wire 1 4 ready~output_o $end
$var wire 1 5 result[0]~output_o $end
$var wire 1 6 result[1]~output_o $end
$var wire 1 7 result[2]~output_o $end
$var wire 1 8 result[3]~output_o $end
$var wire 1 9 result[4]~output_o $end
$var wire 1 : result[5]~output_o $end
$var wire 1 ; result[6]~output_o $end
$var wire 1 < result[7]~output_o $end
$var wire 1 = clock~input_o $end
$var wire 1 > clock~inputclkctrl_outclk $end
$var wire 1 ? start~input_o $end
$var wire 1 @ mult|control_mod|k[0]~32_combout $end
$var wire 1 A mult|control_mod|k[4]~34_combout $end
$var wire 1 B reset~input_o $end
$var wire 1 C mult|control_mod|k[31]~35_combout $end
$var wire 1 D mult|control_mod|k[0]~33 $end
$var wire 1 E mult|control_mod|k[1]~36_combout $end
$var wire 1 F mult|control_mod|k[1]~37 $end
$var wire 1 G mult|control_mod|k[2]~38_combout $end
$var wire 1 H mult|control_mod|k[2]~39 $end
$var wire 1 I mult|control_mod|k[3]~40_combout $end
$var wire 1 J mult|control_mod|k[3]~41 $end
$var wire 1 K mult|control_mod|k[4]~42_combout $end
$var wire 1 L mult|control_mod|k[4]~43 $end
$var wire 1 M mult|control_mod|k[5]~44_combout $end
$var wire 1 N mult|control_mod|k[5]~45 $end
$var wire 1 O mult|control_mod|k[6]~46_combout $end
$var wire 1 P mult|control_mod|k[6]~47 $end
$var wire 1 Q mult|control_mod|k[7]~48_combout $end
$var wire 1 R mult|control_mod|k[7]~49 $end
$var wire 1 S mult|control_mod|k[8]~50_combout $end
$var wire 1 T mult|control_mod|k[8]~51 $end
$var wire 1 U mult|control_mod|k[9]~52_combout $end
$var wire 1 V mult|control_mod|k[9]~53 $end
$var wire 1 W mult|control_mod|k[10]~54_combout $end
$var wire 1 X mult|control_mod|k[10]~55 $end
$var wire 1 Y mult|control_mod|k[11]~56_combout $end
$var wire 1 Z mult|control_mod|k[11]~57 $end
$var wire 1 [ mult|control_mod|k[12]~58_combout $end
$var wire 1 \ mult|control_mod|k[12]~59 $end
$var wire 1 ] mult|control_mod|k[13]~60_combout $end
$var wire 1 ^ mult|control_mod|k[13]~61 $end
$var wire 1 _ mult|control_mod|k[14]~62_combout $end
$var wire 1 ` mult|control_mod|k[14]~63 $end
$var wire 1 a mult|control_mod|k[15]~64_combout $end
$var wire 1 b mult|control_mod|k[15]~65 $end
$var wire 1 c mult|control_mod|k[16]~66_combout $end
$var wire 1 d mult|control_mod|k[16]~67 $end
$var wire 1 e mult|control_mod|k[17]~68_combout $end
$var wire 1 f mult|control_mod|k[17]~69 $end
$var wire 1 g mult|control_mod|k[18]~70_combout $end
$var wire 1 h mult|control_mod|k[18]~71 $end
$var wire 1 i mult|control_mod|k[19]~72_combout $end
$var wire 1 j mult|control_mod|k[19]~73 $end
$var wire 1 k mult|control_mod|k[20]~74_combout $end
$var wire 1 l mult|control_mod|k[20]~75 $end
$var wire 1 m mult|control_mod|k[21]~76_combout $end
$var wire 1 n mult|control_mod|k[21]~77 $end
$var wire 1 o mult|control_mod|k[22]~78_combout $end
$var wire 1 p mult|control_mod|k[22]~79 $end
$var wire 1 q mult|control_mod|k[23]~80_combout $end
$var wire 1 r mult|control_mod|k[23]~81 $end
$var wire 1 s mult|control_mod|k[24]~82_combout $end
$var wire 1 t mult|control_mod|k[24]~83 $end
$var wire 1 u mult|control_mod|k[25]~84_combout $end
$var wire 1 v mult|control_mod|k[25]~85 $end
$var wire 1 w mult|control_mod|k[26]~86_combout $end
$var wire 1 x mult|control_mod|k[26]~87 $end
$var wire 1 y mult|control_mod|k[27]~88_combout $end
$var wire 1 z mult|control_mod|Equal0~8_combout $end
$var wire 1 { mult|control_mod|k[27]~89 $end
$var wire 1 | mult|control_mod|k[28]~90_combout $end
$var wire 1 } mult|control_mod|k[28]~91 $end
$var wire 1 ~ mult|control_mod|k[29]~92_combout $end
$var wire 1 !! mult|control_mod|k[29]~93 $end
$var wire 1 "! mult|control_mod|k[30]~94_combout $end
$var wire 1 #! mult|control_mod|k[30]~95 $end
$var wire 1 $! mult|control_mod|k[31]~96_combout $end
$var wire 1 %! mult|control_mod|Equal0~9_combout $end
$var wire 1 &! mult|control_mod|Equal0~3_combout $end
$var wire 1 '! mult|control_mod|Equal0~0_combout $end
$var wire 1 (! mult|control_mod|Equal0~1_combout $end
$var wire 1 )! mult|control_mod|Equal0~2_combout $end
$var wire 1 *! mult|control_mod|Equal0~4_combout $end
$var wire 1 +! mult|control_mod|Equal0~6_combout $end
$var wire 1 ,! mult|control_mod|Equal0~5_combout $end
$var wire 1 -! mult|control_mod|Equal0~7_combout $end
$var wire 1 .! mult|control_mod|Equal0~10_combout $end
$var wire 1 /! mult|control_mod|state[0]~0_combout $end
$var wire 1 0! reset~inputclkctrl_outclk $end
$var wire 1 1! mult|control_mod|ready~0_combout $end
$var wire 1 2! mult|control_mod|ready~q $end
$var wire 1 3! mult|cnt|par_out[0]~8_combout $end
$var wire 1 4! mult|control_mod|c_cnt[0]~2_combout $end
$var wire 1 5! in_data[0]~input_o $end
$var wire 1 6! mult|control_mod|c_sh_rg[1]~0_combout $end
$var wire 1 7! in_data[1]~input_o $end
$var wire 1 8! in_data[3]~input_o $end
$var wire 1 9! in_data[6]~input_o $end
$var wire 1 :! in_data[7]~input_o $end
$var wire 1 ;! mult|shift_mod|par_out~8_combout $end
$var wire 1 <! mult|shift_mod|par_out~7_combout $end
$var wire 1 =! mult|shift_mod|par_out~1_combout $end
$var wire 1 >! in_data[5]~input_o $end
$var wire 1 ?! mult|shift_mod|par_out~6_combout $end
$var wire 1 @! in_data[4]~input_o $end
$var wire 1 A! mult|shift_mod|par_out~5_combout $end
$var wire 1 B! mult|shift_mod|par_out~4_combout $end
$var wire 1 C! in_data[2]~input_o $end
$var wire 1 D! mult|shift_mod|par_out~3_combout $end
$var wire 1 E! mult|shift_mod|par_out~2_combout $end
$var wire 1 F! mult|shift_mod|par_out~0_combout $end
$var wire 1 G! mult|control_mod|c_cnt[1]~0_combout $end
$var wire 1 H! mult|control_mod|c_cnt[1]~1_combout $end
$var wire 1 I! mult|cnt|Equal2~0_combout $end
$var wire 1 J! mult|cnt|par_out~10_combout $end
$var wire 1 K! mult|cnt|par_out[0]~9 $end
$var wire 1 L! mult|cnt|par_out[1]~11_combout $end
$var wire 1 M! mult|cnt|par_out[1]~12 $end
$var wire 1 N! mult|cnt|par_out[2]~13_combout $end
$var wire 1 O! mult|cnt|par_out[2]~14 $end
$var wire 1 P! mult|cnt|par_out[3]~15_combout $end
$var wire 1 Q! mult|cnt|par_out[3]~16 $end
$var wire 1 R! mult|cnt|par_out[4]~17_combout $end
$var wire 1 S! mult|cnt|par_out[4]~18 $end
$var wire 1 T! mult|cnt|par_out[5]~19_combout $end
$var wire 1 U! mult|cnt|par_out[5]~20 $end
$var wire 1 V! mult|cnt|par_out[6]~21_combout $end
$var wire 1 W! mult|cnt|par_out[6]~22 $end
$var wire 1 X! mult|cnt|par_out[7]~23_combout $end
$var wire 1 Y! mult|control_mod|state [31] $end
$var wire 1 Z! mult|control_mod|state [30] $end
$var wire 1 [! mult|control_mod|state [29] $end
$var wire 1 \! mult|control_mod|state [28] $end
$var wire 1 ]! mult|control_mod|state [27] $end
$var wire 1 ^! mult|control_mod|state [26] $end
$var wire 1 _! mult|control_mod|state [25] $end
$var wire 1 `! mult|control_mod|state [24] $end
$var wire 1 a! mult|control_mod|state [23] $end
$var wire 1 b! mult|control_mod|state [22] $end
$var wire 1 c! mult|control_mod|state [21] $end
$var wire 1 d! mult|control_mod|state [20] $end
$var wire 1 e! mult|control_mod|state [19] $end
$var wire 1 f! mult|control_mod|state [18] $end
$var wire 1 g! mult|control_mod|state [17] $end
$var wire 1 h! mult|control_mod|state [16] $end
$var wire 1 i! mult|control_mod|state [15] $end
$var wire 1 j! mult|control_mod|state [14] $end
$var wire 1 k! mult|control_mod|state [13] $end
$var wire 1 l! mult|control_mod|state [12] $end
$var wire 1 m! mult|control_mod|state [11] $end
$var wire 1 n! mult|control_mod|state [10] $end
$var wire 1 o! mult|control_mod|state [9] $end
$var wire 1 p! mult|control_mod|state [8] $end
$var wire 1 q! mult|control_mod|state [7] $end
$var wire 1 r! mult|control_mod|state [6] $end
$var wire 1 s! mult|control_mod|state [5] $end
$var wire 1 t! mult|control_mod|state [4] $end
$var wire 1 u! mult|control_mod|state [3] $end
$var wire 1 v! mult|control_mod|state [2] $end
$var wire 1 w! mult|control_mod|state [1] $end
$var wire 1 x! mult|control_mod|state [0] $end
$var wire 1 y! mult|cnt|par_out [7] $end
$var wire 1 z! mult|cnt|par_out [6] $end
$var wire 1 {! mult|cnt|par_out [5] $end
$var wire 1 |! mult|cnt|par_out [4] $end
$var wire 1 }! mult|cnt|par_out [3] $end
$var wire 1 ~! mult|cnt|par_out [2] $end
$var wire 1 !" mult|cnt|par_out [1] $end
$var wire 1 "" mult|cnt|par_out [0] $end
$var wire 1 #" mult|shift_mod|par_out [7] $end
$var wire 1 $" mult|shift_mod|par_out [6] $end
$var wire 1 %" mult|shift_mod|par_out [5] $end
$var wire 1 &" mult|shift_mod|par_out [4] $end
$var wire 1 '" mult|shift_mod|par_out [3] $end
$var wire 1 (" mult|shift_mod|par_out [2] $end
$var wire 1 )" mult|shift_mod|par_out [1] $end
$var wire 1 *" mult|shift_mod|par_out [0] $end
$var wire 1 +" mult|control_mod|k [31] $end
$var wire 1 ," mult|control_mod|k [30] $end
$var wire 1 -" mult|control_mod|k [29] $end
$var wire 1 ." mult|control_mod|k [28] $end
$var wire 1 /" mult|control_mod|k [27] $end
$var wire 1 0" mult|control_mod|k [26] $end
$var wire 1 1" mult|control_mod|k [25] $end
$var wire 1 2" mult|control_mod|k [24] $end
$var wire 1 3" mult|control_mod|k [23] $end
$var wire 1 4" mult|control_mod|k [22] $end
$var wire 1 5" mult|control_mod|k [21] $end
$var wire 1 6" mult|control_mod|k [20] $end
$var wire 1 7" mult|control_mod|k [19] $end
$var wire 1 8" mult|control_mod|k [18] $end
$var wire 1 9" mult|control_mod|k [17] $end
$var wire 1 :" mult|control_mod|k [16] $end
$var wire 1 ;" mult|control_mod|k [15] $end
$var wire 1 <" mult|control_mod|k [14] $end
$var wire 1 =" mult|control_mod|k [13] $end
$var wire 1 >" mult|control_mod|k [12] $end
$var wire 1 ?" mult|control_mod|k [11] $end
$var wire 1 @" mult|control_mod|k [10] $end
$var wire 1 A" mult|control_mod|k [9] $end
$var wire 1 B" mult|control_mod|k [8] $end
$var wire 1 C" mult|control_mod|k [7] $end
$var wire 1 D" mult|control_mod|k [6] $end
$var wire 1 E" mult|control_mod|k [5] $end
$var wire 1 F" mult|control_mod|k [4] $end
$var wire 1 G" mult|control_mod|k [3] $end
$var wire 1 H" mult|control_mod|k [2] $end
$var wire 1 I" mult|control_mod|k [1] $end
$var wire 1 J" mult|control_mod|k [0] $end
$var wire 1 K" mult|control_mod|c_cnt [1] $end
$var wire 1 L" mult|control_mod|c_cnt [0] $end
$var wire 1 M" mult|control_mod|c_sh_rg [1] $end
$var wire 1 N" mult|control_mod|c_sh_rg [0] $end
$upscope $end
$upscope $end
$enddefinitions $end
#0
$dumpvars
0!
b11111110 "
0#
0$
0%
0-
0,
0+
0*
0)
0(
0'
0&
0.
1/
x0
11
12
13
04
05
06
07
08
09
0:
0;
0<
0=
0>
0?
1@
1A
0B
0C
0D
0E
1F
0G
0H
0I
1J
0K
0L
0M
1N
0O
0P
0Q
1R
0S
0T
0U
1V
0W
0X
0Y
1Z
0[
0\
0]
1^
0_
0`
0a
1b
0c
0d
0e
1f
0g
0h
0i
1j
0k
0l
0m
1n
0o
0p
0q
1r
0s
0t
0u
1v
0w
0x
0y
0z
1{
0|
0}
0~
1!!
0"!
0#!
0$!
0%!
0&!
1'!
0(!
0)!
1*!
0+!
0,!
0-!
1.!
0/!
00!
01!
02!
13!
14!
05!
16!
17!
18!
19!
1:!
0;!
0<!
0=!
1>!
0?!
1@!
0A!
0B!
1C!
0D!
0E!
0F!
0G!
0H!
0I!
0J!
0K!
0L!
1M!
0N!
0O!
0P!
1Q!
0R!
0S!
0T!
1U!
0V!
0W!
0X!
0x!
zw!
zv!
zu!
zt!
zs!
zr!
zq!
zp!
zo!
zn!
zm!
zl!
zk!
zj!
zi!
zh!
zg!
zf!
ze!
zd!
zc!
zb!
za!
z`!
z_!
z^!
z]!
z\!
z[!
zZ!
zY!
0""
0!"
0~!
0}!
0|!
0{!
0z!
0y!
0*"
0)"
0("
0'"
0&"
0%"
0$"
0#"
0J"
0I"
0H"
0G"
0F"
0E"
0D"
0C"
0B"
0A"
0@"
0?"
0>"
0="
0<"
0;"
0:"
09"
08"
07"
06"
05"
04"
03"
02"
01"
00"
0/"
0."
0-"
0,"
0+"
0L"
0K"
zN"
0M"
$end
#10000
1!
1=
1>
#20000
1#
0!
1B
0=
10!
0>
#30000
1!
1=
1>
#40000
0!
0=
0>
#50000
1!
1=
1>
#60000
0#
0!
0B
0=
00!
0>
#70000
1$
1!
1?
1=
1>
1G!
1C
1/!
1H!
#80000
0$
0!
0?
0=
0>
0G!
0C
0/!
0H!
1x!
1L"
1M"
1K"
1C
0A
1J!
1I!
1=!
04!
1/!
1E!
1D!
1B!
1A!
1?!
1<!
1;!
#90000
1!
1=
1>
1)"
1("
1'"
1&"
1%"
1$"
1#"
#100000
0!
0=
0>
1J"
0L"
0K"
1D
0J!
0I!
0@
1F!
0;!
1E
#110000
1!
1=
1>
1*"
0#"
1G!
0<!
1H!
#120000
0!
0=
0>
0J"
1I"
1K"
0D
0F
1J!
1@
0E
1F
1E
1G
0G
#130000
1!
1=
1>
0$"
1""
15
1K!
1-
0?!
03!
1L!
#140000
0!
0=
0>
1J"
1D
0@
0F
0E
1G
#150000
1!
1=
1>
0%"
1!"
0""
05
16
0M!
0K!
1,
0-
0A!
0L!
13!
1M!
1N!
1L!
0N!
#160000
0!
0=
0>
0J"
0I"
1H"
0D
1F
1H
1@
1E
0G
0H
0E
1G
1I
0I
#170000
1!
1=
1>
0&"
1""
15
1K!
1-
0B!
03!
0M!
0L!
1N!
#180000
0!
0=
0>
1J"
1D
0@
1E
#190000
1!
1=
1>
0'"
1~!
0!"
0""
05
06
17
1O!
1M!
0K!
1+
0,
0-
0D!
0N!
1L!
13!
0O!
1P!
1N!
0L!
0P!
#200000
0!
0=
0>
0J"
1I"
0D
0F
1@
0E
1F
1H
1E
0G
0H
1G
1I
0I
#210000
1!
1=
1>
0("
1""
15
1K!
1-
0E!
03!
1L!
#220000
0!
0=
0>
1J"
1D
0@
0F
0E
1H
0G
1I
#230000
1!
1=
1>
0)"
1!"
0""
05
16
0M!
0K!
1,
0-
0F!
0L!
13!
1O!
1M!
0N!
1L!
0O!
1P!
1N!
0P!
#240000
0!
0=
0>
0J"
0I"
0H"
1G"
0'!
0D
1F
0H
0J
1@
1E
1G
0I
0*!
1J
0E
0G
1I
1K
0.!
0K
0G!
1A
06!
11!
0/!
0H!
#250000
1!
1=
1>
0*"
1""
15
1K!
1-
03!
0M!
0L!
1O!
0N!
1P!
#260000
0!
0=
0>
0G"
0x!
0M"
0K"
12!
14
1'!
0C
0=!
0J!
1%
0I
16!
14!
1*!
1.!
#270000
1!
1=
1>
#280000
b1111110 "
b111110 "
b11110 "
b1110 "
b1111 "
1$
0!
15!
0@!
0>!
09!
0:!
1?
0=
0>
1G!
1C
01!
1/!
1H!
#290000
1!
1=
1>
#300000
0$
0!
0?
0=
0>
0G!
0C
11!
0/!
0H!
1x!
1L"
1M"
1K"
02!
04
1C
0A
1J!
1I!
1=!
0%
04!
01!
1/!
1F!
1E!
1D!
1B!
#310000
1!
1=
1>
1*"
1)"
1("
1'"
0~!
0!"
0""
05
06
07
1G!
0O!
1M!
0K!
0+
0,
0-
1N!
1L!
13!
1H!
0P!
0N!
0L!
#320000
0!
0=
0>
1J"
0L"
1D
0I!
0@
0B!
1E
#330000
1!
1=
1>
0'"
1""
15
1K!
1-
0D!
03!
1L!
#340000
0!
0=
0>
0J"
1I"
0D
0F
1@
0E
1F
1E
1G
0G
#350000
1!
1=
1>
0("
1!"
0""
05
16
0M!
0K!
1,
0-
0E!
0L!
13!
1M!
1N!
1L!
0N!
#360000
0!
0=
0>
1J"
1D
0@
0F
0E
1G
#370000
1!
1=
1>
0)"
1""
15
1K!
1-
0F!
03!
0M!
0L!
1N!
#380000
0!
0=
0>
0J"
0I"
1H"
0D
1F
1H
1@
1E
0G
0H
0E
1G
1I
0I
#390000
1!
1=
1>
0*"
1~!
0!"
0""
05
06
17
0G!
1O!
1M!
0K!
1+
0,
0-
0N!
1L!
13!
0O!
0H!
1P!
1N!
0L!
0P!
#400000
0!
0=
0>
1J"
0K"
1D
0J!
0@
1E
#410000
1!
1=
1>
#420000
0!
0=
0>
0J"
1I"
0D
0F
1@
0E
1F
1H
1E
0G
0H
1G
1I
0I
#430000
1!
1=
1>
#440000
0!
0=
0>
1J"
1D
0@
0F
0E
1H
0G
1I
#450000
b111 "
b11 "
b1 "
b0 "
1!
05!
07!
0C!
08!
1=
1>
#460000
0!
0=
0>
0J"
0I"
0H"
1G"
0'!
0D
1F
0H
0J
1@
1E
1G
0I
0*!
1J
0E
0G
1I
1K
0.!
0K
1A
06!
11!
0/!
#470000
1!
1=
1>
#480000
0!
0=
0>
0G"
0x!
0M"
12!
14
1'!
0C
0=!
1%
0I
16!
14!
1*!
1.!
#490000
1!
1=
1>
#500000
0!
0=
0>
#510000
1!
1=
1>
#520000
0!
0=
0>
#530000
1!
1=
1>
#540000
0!
0=
0>
#550000
1!
1=
1>
#560000
0!
0=
0>
#570000
1!
1=
1>
#580000
0!
0=
0>
#590000
1!
1=
1>
#600000
b10000000 "
b10100000 "
b10101000 "
b10101010 "
0!
17!
18!
1>!
1:!
0=
0>
#610000
1!
1=
1>
#620000
0!
0=
0>
#630000
1!
1=
1>
#640000
0!
0=
0>
#650000
1!
1=
1>
#660000
0!
0=
0>
#670000
1!
1=
1>
#680000
0!
0=
0>
#690000
1!
1=
1>
#700000
0!
0=
0>
#710000
1!
1=
1>
#720000
0!
0=
0>
#730000
1!
1=
1>
#740000
1$
0!
1?
0=
0>
1G!
1C
01!
1/!
1H!
#750000
1!
1=
1>
#760000
0!
0=
0>
1x!
1L"
1M"
1K"
02!
04
0G!
0A
1J!
1I!
1=!
0%
04!
1E!
1B!
1?!
1;!
0H!
#770000
1!
1=
1>
1)"
1'"
1%"
1#"
0~!
07
0+
0N!
#780000
0!
0=
0>
1J"
0L"
0K"
1D
0J!
0I!
0@
1F!
0E!
1D!
0B!
1A!
0?!
1<!
0;!
1E
#790000
1!
1=
1>
1*"
0)"
1("
0'"
1&"
0%"
1$"
0#"
1G!
0F!
1E!
0D!
1B!
0A!
1?!
0<!
1H!
#800000
0!
0=
0>
0J"
1I"
1K"
0D
0F
1J!
1@
0E
1F
1E
1G
0G
#810000
1!
1=
1>
0*"
1)"
0("
1'"
0&"
1%"
0$"
1""
15
0G!
1K!
1-
1F!
0E!
1D!
0B!
1A!
0?!
03!
0H!
1L!
#820000
0$
0!
0?
0=
0>
1J"
0K"
1D
0J!
0@
0F
0E
1G
#830000
1!
1=
1>
1*"
0)"
1("
0'"
1&"
0%"
1G!
0F!
1E!
0D!
1B!
0A!
1H!
#840000
0!
0=
0>
0J"
0I"
1H"
1K"
0D
1F
1H
1J!
1@
1E
0G
0H
0E
1G
1I
0I
#850000
1!
1=
1>
0*"
1)"
0("
1'"
0&"
1!"
0""
05
16
0G!
0M!
0K!
1,
0-
1F!
0E!
1D!
0B!
0L!
13!
1M!
0H!
1N!
1L!
0N!
#860000
0!
0=
0>
1J"
0K"
1D
0J!
0@
1E
#870000
1!
1=
1>
1*"
0)"
1("
0'"
1G!
0F!
1E!
0D!
1H!
#880000
0!
0=
0>
0J"
1I"
1K"
0D
0F
1J!
1@
0E
1F
1H
1E
0G
0H
1G
1I
0I
#890000
1!
1=
1>
0*"
1)"
0("
1""
15
0G!
1K!
1-
1F!
0E!
03!
0M!
0H!
0L!
1N!
#900000
0!
0=
0>
1J"
0K"
1D
0J!
0@
0F
0E
1H
0G
1I
#910000
1!
1=
1>
1*"
0)"
1G!
0F!
1H!
#920000
0!
0=
0>
0J"
0I"
0H"
1G"
1K"
0'!
0D
1F
0H
0J
1J!
1@
1E
1G
0I
0*!
1J
0E
0G
1I
1K
0.!
0K
0G!
1A
06!
11!
0/!
0H!
#930000
1!
1=
1>
0*"
1~!
0!"
0""
05
06
17
1O!
1M!
0K!
1+
0,
0-
0N!
1L!
13!
0O!
1P!
1N!
0L!
0P!
#940000
0!
0=
0>
0G"
0x!
0M"
0K"
12!
14
1'!
0C
0=!
0J!
1%
0I
16!
14!
1*!
1.!
#950000
1!
1=
1>
#960000
0!
0=
0>
#970000
1!
1=
1>
#980000
0!
0=
0>
#990000
1!
1=
1>
#1000000
0!
0=
0>
#1010000
1!
1=
1>
#1020000
0!
0=
0>
#1030000
1!
1=
1>
#1040000
0!
0=
0>
#1050000
1!
1=
1>
#1060000
0!
0=
0>
#1070000
1!
1=
1>
#1080000
0!
0=
0>
#1090000
1!
1=
1>
#1100000
0!
0=
0>
#1110000
1!
1=
1>
#1120000
0!
0=
0>
#1130000
1!
1=
1>
#1140000
0!
0=
0>
#1150000
1!
1=
1>
#1160000
0!
0=
0>
#1170000
1!
1=
1>
#1180000
0!
0=
0>
#1190000
1!
1=
1>
#1200000
0!
0=
0>
#1210000
1!
1=
1>
#1220000
0!
0=
0>
#1230000
1!
1=
1>
#1240000
0!
0=
0>
#1250000
1!
1=
1>
#1260000
0!
0=
0>
#1270000
1!
1=
1>
#1280000
0!
0=
0>
#1290000
1!
1=
1>
#1300000
0!
0=
0>
#1310000
1!
1=
1>
#1320000
0!
0=
0>
#1330000
1!
1=
1>
#1340000
0!
0=
0>
#1350000
1!
1=
1>
#1360000
0!
0=
0>
#1370000
1!
1=
1>
#1380000
0!
0=
0>
#1390000
1!
1=
1>
#1400000
0!
0=
0>
#1410000
1!
1=
1>
#1420000
0!
0=
0>
#1430000
1!
1=
1>
#1440000
0!
0=
0>
#1450000
1!
1=
1>
#1460000
0!
0=
0>
#1470000
1!
1=
1>
#1480000
0!
0=
0>
#1490000
1!
1=
1>
#1500000
0!
0=
0>
#1510000
1!
1=
1>
#1520000
0!
0=
0>
#1530000
1!
1=
1>
#1540000
0!
0=
0>
#1550000
1!
1=
1>
#1560000
0!
0=
0>
#1570000
1!
1=
1>
#1580000
b101010 "
b1010 "
b10 "
b0 "
0!
07!
08!
0>!
0:!
0=
0>
#1590000
1!
1=
1>
#1600000
0!
0=
0>
#1610000
1!
1=
1>
#1620000
0!
0=
0>
#1630000
1!
1=
1>
#1640000
0!
0=
0>
#1650000
1!
1=
1>
#1660000
0!
0=
0>
#1670000
1!
1=
1>
#1680000
0!
0=
0>
#1690000
1!
1=
1>
#1700000
0!
0=
0>
#1710000
1!
1=
1>
#1720000
0!
0=
0>
#1730000
1!
1=
1>
#1740000
0!
0=
0>
#1750000
1!
1=
1>
#1760000
0!
0=
0>
#1770000
1!
1=
1>
#1780000
0!
0=
0>
#1790000
1!
1=
1>
#1800000
0!
0=
0>
#1810000
1!
1=
1>
#1820000
0!
0=
0>
#1830000
1!
1=
1>
#1840000
0!
0=
0>
#1850000
1!
1=
1>
#1860000
0!
0=
0>
#1870000
1!
1=
1>
#1880000
0!
0=
0>
#1890000
1!
1=
1>
#1900000
0!
0=
0>
#1910000
1!
1=
1>
#1920000
0!
0=
0>
#1930000
1!
1=
1>
#1940000
0!
0=
0>
#1950000
1!
1=
1>
#1960000
0!
0=
0>
#1970000
1!
1=
1>
#1980000
0!
0=
0>
#1990000
1!
1=
1>
#2000000
0!
0=
0>
#2010000
1!
1=
1>
#2020000
0!
0=
0>
#2030000
1!
1=
1>
#2040000
0!
0=
0>
#2050000
1!
1=
1>
#2060000
0!
0=
0>
#2070000
1!
1=
1>
#2080000
0!
0=
0>
#2090000
1!
1=
1>
#2100000
0!
0=
0>
#2110000
1!
1=
1>
#2120000
0!
0=
0>
#2130000
1!
1=
1>
#2140000
0!
0=
0>
#2150000
1!
1=
1>
#2160000
0!
0=
0>
#2170000
1!
1=
1>
#2180000
0!
0=
0>
#2190000
1!
1=
1>
#2200000
0!
0=
0>
#2210000
1!
1=
1>
#2220000
0!
0=
0>
#2230000
1!
1=
1>
#2240000
0!
0=
0>
#2250000
1!
1=
1>
#2260000
0!
0=
0>
#2270000
1!
1=
1>
#2280000
0!
0=
0>
#2290000
1!
1=
1>
#2300000
0!
0=
0>
#2310000
1!
1=
1>
#2320000
0!
0=
0>
#2330000
1!
1=
1>
#2340000
0!
0=
0>
#2350000
1!
1=
1>
#2360000
0!
0=
0>
#2370000
1!
1=
1>
#2380000
0!
0=
0>
#2390000
1!
1=
1>
#2400000
0!
0=
0>
#2410000
1!
1=
1>
#2420000
0!
0=
0>
#2430000
1!
1=
1>
#2440000
0!
0=
0>
#2450000
1!
1=
1>
#2460000
0!
0=
0>
#2470000
1!
1=
1>
#2480000
0!
0=
0>
#2490000
1!
1=
1>
#2500000
0!
0=
0>
#2510000
1!
1=
1>
#2520000
0!
0=
0>
#2530000
1!
1=
1>
#2540000
0!
0=
0>
#2550000
1!
1=
1>
#2560000
0!
0=
0>
#2570000
1!
1=
1>
#2580000
0!
0=
0>
#2590000
1!
1=
1>
#2600000
0!
0=
0>
#2610000
1!
1=
1>
#2620000
0!
0=
0>
#2630000
1!
1=
1>
#2640000
0!
0=
0>
#2650000
1!
1=
1>
#2660000
0!
0=
0>
#2670000
1!
1=
1>
#2680000
0!
0=
0>
#2690000
1!
1=
1>
#2700000
0!
0=
0>
#2710000
1!
1=
1>
#2720000
0!
0=
0>
#2730000
1!
1=
1>
#2740000
0!
0=
0>
#2750000
1!
1=
1>
#2760000
0!
0=
0>
#2770000
1!
1=
1>
#2780000
0!
0=
0>
#2790000
1!
1=
1>
#2800000
0!
0=
0>
#2810000
1!
1=
1>
#2820000
0!
0=
0>
#2830000
1!
1=
1>
#2840000
0!
0=
0>
#2850000
1!
1=
1>
#2860000
0!
0=
0>
#2870000
1!
1=
1>
#2880000
0!
0=
0>
#2890000
1!
1=
1>
#2900000
0!
0=
0>
#2910000
1!
1=
1>
#2920000
0!
0=
0>
#2930000
1!
1=
1>
#2940000
0!
0=
0>
#2950000
1!
1=
1>
#2960000
0!
0=
0>
#2970000
1!
1=
1>
#2980000
0!
0=
0>
#2990000
1!
1=
1>
